{"index":{}}
{"id":"20992bb6-1594-469f-94f9-ca04d7079d70","name":"programming"}
{"index":{}}
{"id":"2bf5137b-4149-4f48-b8c0-bd0d8c416817","name":"management"}
{"index":{}}
{"id":"bf707765-985a-457e-9702-4d1868190c86","name":"technology"}
{"index":{}}
{"id":"48de7bb0-46ec-4d58-ad69-d8ca33c4ff39","name":"guitar"}
{"index":{}}
{"id":"2f41b954-cf0f-47a7-b268-a827fdbc3d09","name":"piano"}
{"index":{}}
{"id":"9a729654-cc0e-450b-90d7-6955ca7090af","name":"music"}
{"index":{}}
{"id":"44927339-97dd-4226-9ec0-769733a90e67","name":"drums"}
{"index":{}}
{"id":"831d8ff2-245e-4504-9a9b-dc0dc039c3f5","name":"java"}
{"index":{}}
{"id":"71e9e4dd-7083-43da-95b5-3a613e04b2ba","name":"git"}
{"index":{}}
{"id":"e31ef3f4-6f63-49ac-a5da-c31f6d7d97c5","name":"c++"}
{"index":{}}
{"id":"0ccf10d9-b839-430e-814e-7d429e13a148","name":"philosophy"}
{"index":{}}
{"id":"0862e8b2-96ae-4dfa-afad-a3088101721b","name":"business"}
{"index":{}}
{"id":"5324b053-ce09-4bc6-9706-3d1aa5bbfcc2","name":"economy"}
{"index":{}}
{"id":"58246595-810d-4bb9-a544-57556ac54112","name":"director"}
{"index":{}}
{"id":"ba5607e7-ab00-4915-9f9d-1701b3fee659","name":"driver"}
{"index":{}}
{"id":"51632153-fca8-42fa-8911-1371877e525a","name":"python"}
{"index":{}}
{"id":"6780f7f5-1da5-4522-8e32-3eba1bdae5b5","name":"money"}
{"index":{}}
{"id":"6b8bef28-6692-4499-a643-cd51f8a2ecb1","name":"cash"}
{"index":{}}
{"id":"8351765c-ade8-47ca-aafc-fde9099e81af","name":"c#"}
